module github.com/nurulcode/simplebank

go 1.21.4

require github.com/jackc/pgx/v5 v5.5.0

require (
	github.com/davecgh/go-spew v1.1.1 // indirect
	github.com/jackc/pgpassfile v1.0.0 // indirect
	github.com/jackc/pgservicefile v0.0.0-20221227161230-091c0ba34f0a // indirect
	github.com/pmezard/go-difflib v1.0.0 // indirect
	github.com/stretchr/objx v0.5.0 // indirect
	github.com/stretchr/testify v1.8.4 // indirect
	golang.org/x/crypto v0.9.0 // indirect
	golang.org/x/text v0.9.0 // indirect
	gopkg.in/yaml.v3 v3.0.1 // indirect
)
